Earthquake Scenario Analysis for Istanbul
…
# Data d2 contains information from 2017
d2 <- read_excel("C://Users//user//interim-report-nisanrky//data//bina_sayisi (1).xlsx")
d2$bina_sayisi <- rowSums(d2[ , c(4:6)], na.rm=TRUE)

d2 <- d2 %>% 
#  filter(!ilce_adi == "ADALAR")  %>%
  group_by(ilce_adi) %>%
  summarise(bina_sayisi= sum(bina_sayisi))
d2 <- d2[order(d2$ilce_adi),]

unique(d2[c("ilce_adi")])

## # A tibble: 39 x 1
##    ilce_adi    
##    <chr>       
##  1 ADALAR      
##  2 ARNAVUTKÃ–Y  
##  3 ATAÅžEHÄ°R    
##  4 AVCILAR     
##  5 BAÄžCILAR    
##  6 BAHÃ‡ELÄ°EVLER
##  7 BAKIRKÃ–Y    
##  8 BAÅžAKÅžEHÄ°R  
##  9 BAYRAMPAÅžA  
## 10 BEÅžÄ°KTAÅž    
## # ... with 29 more rows
…
